%YAML 1.1
%TAG !u! tag:unity3d.com,2011:
--- !u!1045 &1
EditorBuildSettings:
  m_ObjectHideFlags: 0
  serializedVersion: 2
  m_Scenes:
  - enabled: 1
    path: Assets/Scenes/Level1.unity
    guid: 9fc0d4010bbf28b4594072e72b8655ab
  - enabled: 1
    path: Assets/Scenes/Level2.unity
    guid: b4caefad3f0e09a4394a172009f59d8d
  - enabled: 1
    path: Assets/Scenes/Level3.unity
    guid: beb11c61471229d429e70e79ead20055
  - enabled: 1
    path: Assets/Scenes/Level4.unity
    guid: 9ee143106c103fa48987429ad1d5be5a
  - enabled: 1
    path: Assets/Scenes/Level5.unity
    guid: 6927738f8e5b5dd419020537a988bd90
  m_configObjects: {}
